// Jest Snapshot v1, https://goo.gl/fbAQLP

exports[`Controller router 1`] = `
MockRes {
  "_events": Object {},
  "_eventsCount": 0,
  "_maxListeners": undefined,
  "_writableState": WritableState {
    "afterWriteTickInfo": null,
    "allBuffers": true,
    "allNoop": true,
    "autoDestroy": true,
    "bufferProcessing": false,
    "buffered": Array [],
    "bufferedIndex": 0,
    "closeEmitted": false,
    "closed": false,
    "constructed": true,
    "corked": 0,
    "decodeStrings": true,
    "defaultEncoding": "utf8",
    "destroyed": false,
    "emitClose": true,
    "ended": false,
    "ending": false,
    "errorEmitted": false,
    "errored": null,
    "finalCalled": false,
    "finished": false,
    "highWaterMark": 16384,
    "length": 0,
    "needDrain": false,
    "objectMode": false,
    "onwrite": [Function],
    "pendingcb": 0,
    "prefinished": false,
    "sync": true,
    "writecb": null,
    "writelen": 0,
    "writing": false,
    Symbol(kOnFinished): Array [],
  },
  "_write": [Function],
  "body": "",
  "headers": Object {},
  Symbol(kCapture): false,
}
`;
